interpolate-err.ecl:4.5 Referenced by "c"
interpolate-err.ecl:3.13 On left side of addition
interpolate-err.ecl:3.11 Referenced by "b"
interpolate-err.ecl:2.21 On right side of addition
interpolate-err.ecl:2.23 Referenced by "a"
interpolate-err.ecl:1.18 In string interpolation.
interpolate-err.ecl:1.18 returned from call
Calling builtin error.
foo
Error occurred.
